127.0.0.1 - - [11/Mar/2014:12:37:20 +0530] "GET /bt HTTP/1.1" 302 -
127.0.0.1 - - [11/Mar/2014:12:37:20 +0530] "GET /bt/ HTTP/1.1" 404 964
127.0.0.1 - - [11/Mar/2014:12:37:20 +0530] "GET /favicon.ico HTTP/1.1" 200 21630
127.0.0.1 - - [11/Mar/2014:12:37:33 +0530] "GET /bp/ HTTP/1.1" 404 964
127.0.0.1 - - [11/Mar/2014:12:37:52 +0530] "GET /bt/ HTTP/1.1" 404 964
127.0.0.1 - - [11/Mar/2014:12:38:32 +0530] "GET /bt/ HTTP/1.1" 404 964
127.0.0.1 - - [11/Mar/2014:12:39:23 +0530] "GET /bt/BatchPDFImpl_1.jar HTTP/1.1" 200 31593
